{
  "error": false,
  "isNewApp":false,
  "isForce":"yes",
  "app_pkg": "com.chatkar.randomchat.livevideocall.randomvideocall.videocallappwithgirl.livetalk.videocall",
   "fbBannr": "7672518432841773_7672528789507404",
  "fbInter": "7672518432841773_7672529346174015",
  "fbNative": "7672518432841773_7672529819507301",
  "fbNativeBnnr": "7672518432841773_7672530276173922",
  "AdmobBannr": "ca-app-pub-6994117986450416/2000524873",
  "AdmobInter": "ca-app-pub-6994117986450416/7089517251",
  "AdmobInterSplash":"ca-app-pub-6994117986450416/7089517251",
  "AdmobNative": "ca-app-pub-6994117986450416/8161758485",
  "AdmobOpenAds": "ca-app-pub-6994117986450416/7096088821",
  "admob_pub_id": "pub-6994117986450416",
  "admob_app_id": "ca-app-pub-6994117986450416~2087304724",
  "adType": "admob",
  "adStatus": "admob",
  "isConsent":true,
  "adNativeCount":15,
  "Advertise_List": [
    {
     
	    "ad_id": 0,
	    "app_name": "LED Strip Remote",
	    "app_packageName": "com.rgb.led.strip.remote.ledstripremote.rgbremote.rgblight.ledremote.alz",
	    "app_logo": "https://play-lh.googleusercontent.com/W8HObmcg5iVAEvow2C_BIX4QoA31_pJyH_s2LgWiyDrAqFG7dCOUz2VYrsb9w_3lQEQ=w240-h480",
	    "app_banner": "https://play-lh.googleusercontent.com/FBSazKxQKk7vFx1ZzvKnp0ObCUpWXX3ze_aUVqx7_XyIzbOdooH7XfDMmMMSGrwlchQ=w416-h235",
        "app_shortDecription": "Use an IR receiver on your mobile phone to control your RGB LED light",
		"app_rating": "4.4",
		"app_download": "1000",
		"app_AdFormat": "Banner",
		"app_buttonName": "Install"
	  
    }
  ],
  "adMobTime":4
}
